[
    {
        "model": "master.industry",
        "pk": "ind_8b089783649543359c85c9c390a10043",
        "fields": {
            "name": "Hospitality",
            "mcc_code": "8062"
        }
    },
    {
        "model": "master.industry",
        "pk": "ind_b157bbe5abeb4fa5b49bbff4ba1f08f5",
        "fields": {
            "name": "Retail",
            "mcc_code": "5965"
        }
    },
    {
        "model": "master.industry",
        "pk": "ind_7cdcc0c55dc043f786bd1d07ef7f13fd",
        "fields": {
            "name": "Hair and beauty",
            "mcc_code": "7230"
        }
    },
    {
        "model": "master.industry",
        "pk": "ind_1bd0010fc65c4431a764daa858a68229",
        "fields": {
            "name": "Automative",
            "mcc_code": "1"
        }
    },
    {
        "model": "master.industry",
        "pk": "ind_7a4005406f8c4d53865178eddd64013e",
        "fields": {
            "name": "Health",
            "mcc_code": "7298"
        }
    },
    {
        "model": "master.industry",
        "pk": "ind_3df848bef9ca49eb9b6860559fb2d1df",
        "fields": {
            "name": "Service Providers",
            "mcc_code": "7339"
        }
    },
    {
        "model": "master.industry",
        "pk": "ind_dd7f5cf2acc44bd58f87571cbd87af19",
        "fields": {
            "name": "Entertainment",
            "mcc_code": "11"
        }
    },
    {
        "model": "master.industry",
        "pk": "ind_6dfc9cf3919944f3bd8db065dbf095aa",
        "fields": {
            "name": "Travel",
            "mcc_code": "4722"
        }
    }
]